@startuml
left to right direction

User as U
Manager as M
Customer as Client

header UCD-4. Task Management



Package Showcase {

(1. Change\nTask\nStatus) as Change
(2. In Progress) as P
(3. Closed) as C
(4. Close\nAppeal) as CA

(5. Send\nNotification) as SN

'Task Status Integrations
Change <|-- P
Change <|-- C

'Closed
C --.> CA : <<include>>
C --.> SN : <<include>>

}

'User Interactions
U --> Change
U <-- SN

'Manager Interactions
M <- SN

'Client Interactions
SN --> Client



@enduml
 