@startuml
left to right direction


header UCD-2. User Profile and Client List Management

Package AllUserTypes {
    User as U
    Manager as M
}

Package Showcase {

(1. Show\nProfile) as ShowP
(2. Edit\nProfile) as EditP
(3. Show\nNotifications) as ShowR
(4. Get\nCustomer\nList) as Get
(5. Search for a Customer) as Search
(6. Edit Customer) as EditC
(7. Create Customer) as Create

'Profile Extensions
ShowP <.- EditP : <<extend>>

'Client List Extensions
Get <.-- Search : <<extend>>
Get <.-- EditC : <<extend>>
Get <.-- Create : <<extend>>

}


'Manager and User Interactions
AllUserTypes --> ShowP
AllUserTypes ---> ShowR
AllUserTypes --> Get


@enduml
 