@startuml

!include <logos/gitlab>
!include <logos/git-icon>
!include <cloudogu/common>
!include <cloudogu/tools/k8s>

skinparam linetype ortho
skinparam ranksep 255
skinparam nodesep 150
left to right direction

actor developer #ffffff
rectangle "<$gitlab> Local Gitlab" as git #ffffff
rectangle "<$git-icon> Git Pipline" as pipeline  #ffffff

TOOL_K8S(k8s, K8S) #ffffff

developer -> git : "1 Push Code"
git -down-> pipeline : "2 Build, Test code, \nBuild docker image"
pipeline -left-> git : "3 Save docker image \nin docker repo"
pipeline -right--> k8s : "4 kubectl deployment"
k8s --> git : "5 Pull docker image"
k8s -r-> k8s : "6 Run application"

@enduml